<?xml version="1.0" encoding="UTF-8" standalone="no"?>
<!-- Created with Inkscape (http://www.inkscape.org/) -->

<svg
   xmlns:dc="http://purl.org/dc/elements/1.1/"
   xmlns:cc="http://creativecommons.org/ns#"
   xmlns:rdf="http://www.w3.org/1999/02/22-rdf-syntax-ns#"
   xmlns:svg="http://www.w3.org/2000/svg"
   xmlns="http://www.w3.org/2000/svg"
   xmlns:sodipodi="http://sodipodi.sourceforge.net/DTD/sodipodi-0.dtd"
   xmlns:inkscape="http://www.inkscape.org/namespaces/inkscape"
   width="731.32111"
   height="160.45148"
   id="svg2"
   version="1.1"
   inkscape:version="0.48.4 r9939"
   sodipodi:docname="logo.svg">
  <defs
     id="defs4" />
  <sodipodi:namedview
     id="base"
     pagecolor="#ffffff"
     bordercolor="#666666"
     borderopacity="1.0"
     inkscape:pageopacity="0.0"
     inkscape:pageshadow="2"
     inkscape:zoom="1.2566414"
     inkscape:cx="354.34675"
     inkscape:cy="225.48105"
     inkscape:document-units="px"
     inkscape:current-layer="layer1"
     showgrid="false"
     fit-margin-top="0"
     fit-margin-left="0"
     fit-margin-right="0"
     fit-margin-bottom="0"
     inkscape:window-width="1871"
     inkscape:window-height="1056"
     inkscape:window-x="49"
     inkscape:window-y="24"
     inkscape:window-maximized="1" />
  <metadata
     id="metadata7">
    <rdf:RDF>
      <cc:Work
         rdf:about="">
        <dc:format>image/svg+xml</dc:format>
        <dc:type
           rdf:resource="http://purl.org/dc/dcmitype/StillImage" />
        <dc:title></dc:title>
      </cc:Work>
    </rdf:RDF>
  </metadata>
  <g
     inkscape:label="Layer 1"
     inkscape:groupmode="layer"
     id="layer1"
     transform="translate(-117.14286,-310.50582)">
    <flowRoot
       xml:space="preserve"
       id="flowRoot2985"
       style="font-size:170.77485657px;font-style:normal;font-variant:normal;font-weight:bold;font-stretch:normal;text-align:start;line-height:80.00000119%;letter-spacing:0px;word-spacing:0px;writing-mode:lr-tb;text-anchor:start;fill:#000000;fill-opacity:1;stroke:none;font-family:Droid Sans;-inkscape-font-specification:Droid Sans Bold"><flowRegion
         id="flowRegion2987"><rect
           id="rect2989"
           width="642.85712"
           height="255.71428"
           x="58.57143"
           y="370.93362" /></flowRegion><flowPara
         id="flowPara2991" /></flowRoot>    <g
       style="font-size:170.77485656999999719px;font-style:normal;font-variant:normal;font-weight:bold;font-stretch:normal;text-align:start;line-height:80.00000119000000609%;letter-spacing:0px;word-spacing:0px;writing-mode:lr-tb;text-anchor:start;fill:#222222;fill-opacity:1;stroke:none;font-family:eyelevation pro;-inkscape-font-specification:eyelevation pro Bold"
       id="text2993">
      <path
         d="m 117.14286,341.68073 23.90848,0 0,45.42612 c -2e-5,2.96014 0.56923,5.74946 1.70775,8.36796 1.13847,2.50474 2.67544,4.72481 4.61092,6.66022 1.93542,1.93548 4.21241,3.47245 6.83099,4.61092 2.61851,1.02468 5.40783,1.537 8.36797,1.53698 2.96005,2e-5 5.69245,-0.56923 8.1972,-1.70775 2.61849,-1.13847 4.89548,-2.67545 6.83099,-4.61092 1.93539,-1.93542 3.41543,-4.15549 4.44015,-6.66022 1.13843,-2.61851 1.70768,-5.40783 1.70774,-8.36797 -6e-5,-5.57859 -1.65088,-10.18951 -4.95247,-13.83276 l -27.1532,-31.42258 31.42258,0 15.19896,17.24826 c 2.96001,3.98482 5.29393,8.36804 7.00177,13.14967 1.70766,4.6679 2.56153,9.62037 2.56162,14.85741 -9e-5,6.26178 -1.19551,12.18197 -3.58627,17.76059 -2.27709,5.46481 -5.46488,10.2465 -9.56339,14.34508 -3.98482,4.09861 -8.76652,7.34333 -14.34509,9.73417 -5.46486,2.39085 -11.32812,3.58627 -17.58981,3.58627 -6.37564,0 -12.35275,-1.1385 -17.93136,-3.41549 -5.46482,-2.39085 -10.24651,-5.63557 -14.34509,-9.73417 -4.09861,-4.09858 -7.34333,-8.88027 -9.73417,-14.34509 -2.39085,-5.57861 -3.58627,-11.4988 -3.58627,-17.76058 l 0,-45.42612"
         id="path4456"
         inkscape:connector-curvature="0"
         style="fill:#222222;fill-opacity:1" />
      <path
         d="m 250.28321,341.68073 c 6.26169,9e-5 12.12496,1.19552 17.58981,3.58628 5.57858,2.27708 10.41719,5.46487 14.51586,9.56339 4.09852,4.09867 7.34324,8.88036 9.73417,14.34509 2.39076,5.46485 3.58618,11.32811 3.58627,17.58981 0.11376,6.37563 -1.02474,12.35274 -3.4155,17.93136 -2.27708,5.46481 -5.46487,10.2465 -9.56339,14.34508 -3.98482,4.09861 -8.70959,7.34333 -14.17431,9.73417 -5.46485,2.39085 -11.32812,3.58627 -17.58981,3.58627 -6.37564,0 -12.35275,-1.1385 -17.93136,-3.41549 -5.46482,-2.39085 -10.30344,-5.63557 -14.51586,-9.73417 -4.09861,-4.09858 -7.34333,-8.88027 -9.73417,-14.34509 -2.39085,-5.46476 -3.58627,-11.32803 -3.58627,-17.58981 0,-6.26169 1.13849,-12.18188 3.41549,-17.76058 2.39085,-5.57858 5.63556,-10.4172 9.73417,-14.51587 4.09858,-4.09851 8.88027,-7.34323 14.34509,-9.73416 5.46476,-2.39076 11.32803,-3.58619 17.58981,-3.58628 m 0.17077,66.77297 c 2.96005,3e-5 5.74937,-0.56922 8.36797,-1.70775 2.61849,-1.13847 4.89549,-2.67544 6.831,-4.61092 1.93538,-1.93541 3.47235,-4.21241 4.61092,-6.83099 1.13843,-2.73236 1.70768,-5.5786 1.70775,-8.53874 -7e-5,-2.96005 -0.56932,-5.69245 -1.70775,-8.1972 -1.13857,-2.61849 -2.73246,-4.89548 -4.7817,-6.83099 -1.93551,-1.93539 -4.2125,-3.41543 -6.83099,-4.44015 -2.6186,-1.13843 -5.40792,-1.70768 -8.36797,-1.70775 -2.96014,7e-5 -5.74946,0.56932 -8.36797,1.70775 -2.50473,1.13857 -4.7248,2.73246 -6.66022,4.7817 -1.93548,1.9355 -3.47245,4.2125 -4.61092,6.83099 -1.13852,2.6186 -1.70777,5.40792 -1.70775,8.36797 -2e-5,2.96014 0.56923,5.74946 1.70775,8.36797 1.13847,2.50473 2.67544,4.7248 4.61092,6.66022 1.93542,1.93547 4.21241,3.47245 6.831,4.61092 2.6185,1.02467 5.40782,1.537 8.36796,1.53697"
         id="path4458"
         inkscape:connector-curvature="0"
         style="fill:#222222;fill-opacity:1" />
      <path
         d="m 382.77247,341.68073 0,85.38743 c -0.11394,6.03405 -1.36628,11.72654 -3.75704,17.07749 -2.39094,5.35093 -5.63565,10.01877 -9.73417,14.00354 -3.98482,3.98471 -8.70959,7.11558 -14.17431,9.39261 -5.35101,2.27696 -11.10042,3.41546 -17.24826,3.4155 l 0,-23.56693 c 2.8462,-2e-5 5.52167,-0.56926 8.02641,-1.70775 2.50465,-1.02466 4.66779,-2.50471 6.48945,-4.44014 1.93539,-1.82161 3.47236,-3.98476 4.61092,-6.48945 1.13843,-2.5047 1.76461,-5.18017 1.87852,-8.02642 -3.07401,1.8216 -6.43258,3.24473 -10.07571,4.26937 -3.64325,0.9108 -7.34337,1.3662 -11.10037,1.3662 -6.26178,0 -12.18197,-1.19542 -17.76058,-3.58627 -5.46482,-2.39084 -10.30344,-5.63556 -14.51587,-9.73417 -4.0986,-4.09858 -7.40025,-8.88027 -9.90494,-14.34508 -2.39085,-5.46477 -3.58627,-11.32803 -3.58627,-17.58981 l 0,-45.42612 23.73771,0 0,45.42612 c 0.11382,2.96014 0.73999,5.74946 1.87852,8.36796 1.13847,2.50474 2.67544,4.72481 4.61092,6.66022 1.93542,1.93548 4.15549,3.47245 6.66022,4.61092 2.61851,1.02468 5.40783,1.537 8.36797,1.53698 2.96005,2e-5 5.74937,-0.56923 8.36796,-1.70775 2.6185,-1.13847 4.89549,-2.67545 6.831,-4.61092 1.93539,-1.93542 3.47236,-4.15549 4.61092,-6.66022 1.13843,-2.61851 1.70768,-5.3509 1.70775,-8.19719 l 0,-45.42612 24.07925,0"
         id="path4460"
         inkscape:connector-curvature="0"
         style="fill:#222222;fill-opacity:1" />
      <path
         d="m 471.49536,432.36218 -23.73771,0 0,-45.25533 c -0.11391,-3.0739 -0.74009,-5.92015 -1.87852,-8.53875 -1.13856,-2.61849 -2.73246,-4.89548 -4.7817,-6.83099 -1.9355,-2.04924 -4.2125,-3.58621 -6.83099,-4.61092 -2.6186,-1.13844 -5.46484,-1.70768 -8.53874,-1.70775 -2.96014,7e-5 -5.74946,0.56931 -8.36797,1.70775 -2.50473,1.13856 -4.7248,2.73246 -6.66022,4.78169 -1.93548,1.93551 -3.47245,4.21251 -4.61092,6.831 -1.02467,2.6186 -1.537,5.46484 -1.53698,8.53874 -2e-5,5.23714 1.70773,9.90498 5.12325,14.00354 l 27.1532,31.08102 -31.59335,0 -12.29579,-14.00354 c -0.45541,-0.79693 -0.91081,-1.4231 -1.36619,-1.87852 -0.45541,-0.45538 -0.91081,-0.96771 -1.3662,-1.53697 -2.96011,-3.75703 -5.29403,-7.96947 -7.00177,-12.63734 -1.70775,-4.78166 -2.56162,-9.79105 -2.56162,-15.02819 0,-6.26169 1.13849,-12.12496 3.41549,-17.58981 2.39084,-5.57858 5.63556,-10.41719 9.73417,-14.51586 4.09858,-4.21237 8.88027,-7.51401 14.34509,-9.90494 5.46476,-2.39076 11.2711,-3.58619 17.41903,-3.58628 6.2617,-0.11376 12.12496,1.02474 17.58981,3.4155 5.57858,2.39093 10.4172,5.63565 14.51587,9.73417 4.21236,4.09867 7.514,8.93728 9.90494,14.51586 2.50461,5.5787 3.81388,11.49889 3.92782,17.76059 l 0,45.25533"
         id="path4462"
         inkscape:connector-curvature="0"
         style="fill:#222222;fill-opacity:1" />
      <path
         d="m 513.44993,341.68073 c 6.26169,9e-5 12.18188,1.19552 17.76058,3.58628 5.57858,2.27708 10.41719,5.46487 14.51586,9.56339 4.09852,4.09867 7.34324,8.93728 9.73417,14.51586 2.50461,5.46485 3.75696,11.32812 3.75705,17.58981 l 0,40.13209 c -0.11394,6.03405 -1.36629,11.72654 -3.75705,17.07749 -2.39093,5.35093 -5.63565,10.01877 -9.73417,14.00354 -3.98482,3.98471 -8.70958,7.11558 -14.17431,9.39261 -5.46485,2.27696 -11.27119,3.41546 -17.41903,3.4155 l 0,-23.56693 c 2.84619,-2e-5 5.52166,-0.56926 8.02641,-1.70775 2.6185,-1.02466 4.83857,-2.44778 6.66022,-4.26937 1.93539,-1.82161 3.47236,-3.98475 4.61092,-6.48944 1.25229,-2.39085 1.93539,-5.0094 2.0493,-7.85565 -3.30171,1.5939 -6.77413,2.90318 -10.41726,3.92782 -3.5294,0.9108 -7.22952,1.3662 -11.10037,1.3662 -6.26178,0 -12.18197,-1.1385 -17.76058,-3.41549 -5.46482,-2.39085 -10.24651,-5.63557 -14.34509,-9.73417 -4.09861,-4.09858 -7.40025,-8.88027 -9.90494,-14.34509 -2.39085,-5.57861 -3.58628,-11.4988 -3.58628,-17.76058 0,-6.2617 1.1385,-12.12496 3.4155,-17.58981 2.39084,-5.57858 5.63556,-10.4172 9.73417,-14.51587 4.09858,-4.09851 8.88027,-7.34323 14.34509,-9.73416 5.46476,-2.39076 11.32802,-3.58619 17.58981,-3.58628 m 0.34155,66.94375 c 2.96005,2e-5 5.74936,-0.56923 8.36796,-1.70775 2.6185,-1.13847 4.89549,-2.67545 6.831,-4.61092 1.93538,-2.04927 3.47236,-4.38319 4.61092,-7.00177 1.13843,-2.61851 1.65076,-5.40783 1.53697,-8.36797 -6e-5,-2.96005 -0.56931,-5.74937 -1.70775,-8.36797 -1.13856,-2.61849 -2.67553,-4.89548 -4.61092,-6.83099 -1.9355,-1.93539 -4.2125,-3.41543 -6.83099,-4.44015 -2.6186,-1.13843 -5.46484,-1.70768 -8.53874,-1.70775 -2.96014,7e-5 -5.74946,0.56932 -8.36797,1.70775 -2.50473,1.13857 -4.7248,2.67554 -6.66022,4.61092 -1.93548,1.93551 -3.47245,4.21251 -4.61092,6.831 -1.02468,2.6186 -1.537,5.40792 -1.53698,8.36797 -2e-5,2.96014 0.56923,5.74946 1.70775,8.36796 1.13847,2.61859 2.67545,4.89558 4.61092,6.831 1.93542,1.93547 4.21242,3.47245 6.831,4.61092 2.61851,1.13852 5.40783,1.70777 8.36797,1.70775"
         id="path4464"
         inkscape:connector-curvature="0"
         style="fill:#222222;fill-opacity:1" />
      <path
         d="m 618.59122,399.91496 c 2.84618,-3.52931 4.26931,-7.79868 4.26937,-12.80811 -6e-5,-3.0739 -0.56931,-5.92015 -1.70775,-8.53875 -1.13856,-2.61849 -2.67553,-4.89548 -4.61092,-6.83099 -1.9355,-1.93539 -4.2125,-3.41543 -6.83099,-4.44015 -2.6186,-1.13843 -5.46485,-1.70768 -8.53874,-1.70775 -2.96014,7e-5 -5.74946,0.56932 -8.36797,1.70775 -2.50473,1.13857 -4.72481,2.73246 -6.66022,4.7817 -1.93548,1.9355 -3.47245,4.2125 -4.61092,6.83099 -1.02468,2.6186 -1.537,5.40792 -1.53698,8.36797 -2e-5,2.96014 0.56923,5.74946 1.70775,8.36797 1.13847,2.50473 2.67545,4.7248 4.61092,6.66022 1.93542,1.93547 4.21242,3.47245 6.831,4.61092 2.73236,1.02467 5.5786,1.537 8.53874,1.53697 l 34.49652,0 0,23.90848 -34.49652,0 c -6.26178,0 -12.18197,-1.1385 -17.76058,-3.41549 -5.46482,-2.39085 -10.30344,-5.63557 -14.51587,-9.73417 -4.0986,-4.09858 -7.34332,-8.88027 -9.73416,-14.34509 -2.39085,-5.46476 -3.58628,-11.32803 -3.58628,-17.58981 0,-6.26169 1.1385,-12.12496 3.4155,-17.58981 2.39084,-5.57858 5.57864,-10.41719 9.56339,-14.51586 4.09858,-4.21237 8.88027,-7.51401 14.34509,-9.90494 5.46476,-2.39076 11.32803,-3.58619 17.58981,-3.58628 6.37554,9e-5 12.35266,1.19552 17.93136,3.58628 5.57858,2.27708 10.41719,5.46487 14.51586,9.56339 4.09852,4.09867 7.34324,8.93728 9.73417,14.51586 2.39076,5.5787 3.58618,11.49889 3.58627,17.76059 -9e-5,4.21248 -0.62626,8.48185 -1.87852,12.80811 l -26.29933,0"
         id="path4466"
         inkscape:connector-curvature="0"
         style="fill:#222222;fill-opacity:1" />
      <path
         d="m 745.39595,420.40794 c 4.55392,3.98476 8.08326,8.82337 10.58805,14.51587 2.61845,5.69248 3.92773,11.84037 3.92782,18.44368 l 0,0.17077 -23.73771,0 c -6e-5,-2.84626 -0.56931,-5.57866 -1.70775,-8.19719 -1.13856,-2.61856 -2.73246,-4.89555 -4.78169,-6.83099 -1.93551,-1.82161 -4.2125,-3.30165 -6.831,-4.44015 -2.61859,-1.1385 -5.40791,-1.70775 -8.36796,-1.70775 l -21.17609,0 0,-23.90848 21.17609,0 c 2.96005,3e-5 5.74937,-0.56922 8.36796,-1.70775 2.6185,-1.13847 4.89549,-2.67544 6.831,-4.61092 1.93538,-1.93541 3.41543,-4.21241 4.44014,-6.83099 1.13844,-2.61851 1.70769,-5.40783 1.70775,-8.36797 -6e-5,-2.8462 -0.56931,-5.57859 -1.70775,-8.19719 -1.13856,-2.61849 -2.67553,-4.89549 -4.61092,-6.831 -1.9355,-1.93538 -4.2125,-3.41543 -6.83099,-4.44014 -2.6186,-1.13844 -5.40792,-1.65076 -8.36797,-1.53698 -2.96014,7e-5 -5.69253,0.56932 -8.19719,1.70775 -2.50473,1.02471 -4.72481,2.50476 -6.66022,4.44015 -1.93548,1.9355 -3.47245,4.2125 -4.61092,6.83099 -1.02468,2.50475 -1.537,5.18022 -1.53698,8.02642 l 0,0.85388 -23.90848,0 0,-0.6831 c -0.11385,-6.2617 0.96773,-12.12496 3.24473,-17.58981 2.39084,-5.46473 5.63556,-10.24642 9.73416,-14.34509 4.09858,-4.09852 8.88027,-7.34324 14.34509,-9.73417 5.46476,-2.39076 11.32803,-3.64311 17.58981,-3.75705 6.26169,9e-5 12.12496,1.19552 17.58981,3.58628 5.57858,2.27708 10.41719,5.46487 14.51586,9.56339 4.09852,4.09867 7.34324,8.88036 9.73417,14.34509 2.39076,5.46485 3.58618,11.32811 3.58627,17.58981 -9e-5,6.60333 -1.30936,12.86507 -3.92782,18.78523 -2.61863,5.80637 -6.09105,10.75883 -10.41727,14.85741"
         id="path4468"
         inkscape:connector-curvature="0"
         style="fill:#222222;fill-opacity:1" />
      <path
         d="m 848.46394,341.68073 0,112.02831 -24.07925,0 0,-26.81165 c -3.07401,1.5939 -6.31873,2.90317 -9.73417,3.92782 -3.41555,1.02465 -7.11567,1.53697 -11.10036,1.53697 -6.26179,0 -12.18198,-1.1385 -17.76059,-3.41549 -5.46482,-2.39085 -10.24651,-5.63557 -14.34509,-9.73417 -4.0986,-4.09858 -7.34332,-8.88027 -9.73416,-14.34509 -2.39085,-5.46476 -3.58628,-11.2711 -3.58628,-17.41903 l 0,-45.76767 23.90848,0 0,45.42612 c -2e-5,2.96014 0.56923,5.74946 1.70775,8.36796 1.13847,2.50474 2.67545,4.72481 4.61092,6.66022 1.93542,1.82163 4.21242,3.30168 6.831,4.44015 2.61851,1.13852 5.40783,1.70777 8.36797,1.70775 2.8462,-0.11383 5.52167,-0.74 8.02641,-1.87853 2.6185,-1.13847 4.83857,-2.61851 6.66022,-4.44014 1.93539,-1.93542 3.41544,-4.15549 4.44015,-6.66022 1.13843,-2.61851 1.70768,-5.3509 1.70775,-8.19719 l 0,-45.42612 24.07925,0"
         id="path4470"
         inkscape:connector-curvature="0"
         style="fill:#222222;fill-opacity:1" />
    </g>
    <path
       style="fill:#9600ff;fill-opacity:1;stroke:none"
       d="m 331.68854,366.74029 c 0,0 12.0518,-6.99196 14.40729,-25.89952 0.85269,-6.84456 8.03874,-13.86377 16.8427,-16.06476 6.42857,-1.60715 5.13417,-15.94935 -14.64284,-14.10714 -11.06393,1.03059 -22.1114,13.53672 -15.62532,26.22106 9.41538,18.41292 -0.98183,29.85036 -0.98183,29.85036 z"
       id="path3771"
       inkscape:connector-curvature="0"
       sodipodi:nodetypes="cssssc" />
  </g>
</svg>
